module gitlab.com/gitlab-org/ci-cd/gitlab-runner-pod-cleanup

go 1.17

require (
	github.com/jpillora/backoff v1.0.0
	github.com/kelseyhightower/envconfig v1.4.0
	github.com/patrickmn/go-cache v2.1.0+incompatible
	github.com/sirupsen/logrus v1.8.1
	github.com/stretchr/testify v1.7.0
	golang.org/x/sync v0.0.0-20210220032951-036812b2e83c
	k8s.io/api v0.21.1
	k8s.io/apimachinery v0.21.1
	k8s.io/client-go v0.21.1
)

require (
	github.com/davecgh/go-spew v1.1.1 // indirect
	github.com/go-logr/logr v0.4.0 // indirect
	github.com/gogo/protobuf v1.3.2 // indirect
	github.com/golang/protobuf v1.5.0 // indirect
	github.com/google/go-cmp v0.5.5 // indirect
	github.com/google/gofuzz v1.1.0 // indirect
	github.com/googleapis/gnostic v0.4.1 // indirect
	github.com/imdario/mergo v0.3.12 // indirect
	github.com/json-iterator/go v1.1.11 // indirect
	github.com/modern-go/concurrent v0.0.0-20180306012644-bacd9c7ef1dd // indirect
	github.com/modern-go/reflect2 v1.0.1 // indirect
	github.com/pmezard/go-difflib v1.0.0 // indirect
	github.com/spf13/pflag v1.0.5 // indirect
	golang.org/x/net v0.0.0-20210226172049-e18ecbb05110 // indirect
	golang.org/x/oauth2 v0.0.0-20200107190931-bf48bf16ab8d // indirect
	golang.org/x/sys v0.0.0-20210603081109-ebe580a85c40 // indirect
	golang.org/x/term v0.0.0-20210220032956-6a3ed077a48d // indirect
	golang.org/x/text v0.3.4 // indirect
	golang.org/x/time v0.0.0-20210220033141-f8bda1e9f3ba // indirect
	google.golang.org/appengine v1.6.5 // indirect
	google.golang.org/protobuf v1.26.0 // indirect
	gopkg.in/inf.v0 v0.9.1 // indirect
	gopkg.in/yaml.v2 v2.4.0 // indirect
	gopkg.in/yaml.v3 v3.0.0-20200313102051-9f266ea9e77c // indirect
	k8s.io/klog/v2 v2.8.0 // indirect
	k8s.io/utils v0.0.0-20201110183641-67b214c5f920 // indirect
	sigs.k8s.io/structured-merge-diff/v4 v4.1.0 // indirect
	sigs.k8s.io/yaml v1.2.0 // indirect
)
